%YAML 1.1
%TAG !u! tag:unity3d.com,2011:
--- !u!1 &3402198604117243325
GameObject:
  m_ObjectHideFlags: 0
  m_CorrespondingSourceObject: {fileID: 0}
  m_PrefabInstance: {fileID: 0}
  m_PrefabAsset: {fileID: 0}
  serializedVersion: 6
  m_Component:
  - component: {fileID: 3402198604117243324}
  - component: {fileID: 3402198604117243267}
  m_Layer: 0
  m_Name: Card Manager
  m_TagString: Untagged
  m_Icon: {fileID: 0}
  m_NavMeshLayer: 0
  m_StaticEditorFlags: 0
  m_IsActive: 1
--- !u!4 &3402198604117243324
Transform:
  m_ObjectHideFlags: 0
  m_CorrespondingSourceObject: {fileID: 0}
  m_PrefabInstance: {fileID: 0}
  m_PrefabAsset: {fileID: 0}
  m_GameObject: {fileID: 3402198604117243325}
  m_LocalRotation: {x: 0, y: 0, z: 0, w: 1}
  m_LocalPosition: {x: 0.50959575, y: -1.1550486, z: 100.28711}
  m_LocalScale: {x: 1, y: 1, z: 1}
  m_Children: []
  m_Father: {fileID: 0}
  m_RootOrder: 0
  m_LocalEulerAnglesHint: {x: 0, y: 0, z: 0}
--- !u!114 &3402198604117243267
MonoBehaviour:
  m_ObjectHideFlags: 0
  m_CorrespondingSourceObject: {fileID: 0}
  m_PrefabInstance: {fileID: 0}
  m_PrefabAsset: {fileID: 0}
  m_GameObject: {fileID: 3402198604117243325}
  m_Enabled: 1
  m_EditorHideFlags: 0
  m_Script: {fileID: 11500000, guid: 4b76f3a2de300cf45ba774307959c301, type: 3}
  m_Name: 
  m_EditorClassIdentifier: 
  ref_question_card: {fileID: 0}
  array_cards:
  - card_name: card_a
    card_index: 0
    card_sprite: {fileID: 21300000, guid: ffc1a35d2936fd54dac42da1d15fa7b5, type: 3}
    answer_Card: 2
    ref_audio_manager: {fileID: 0}
    button: {fileID: 0}
    card_object: {fileID: 0}
    answer_cards_sprite:
    - {fileID: 21300000, guid: d5a36075200fe794da35506f5586b940, type: 3}
    - {fileID: 21300000, guid: 12058e31a26d77e4bb362bbdca1a9722, type: 3}
    - {fileID: 21300000, guid: 2a1eebfbbb8ef374b936fdf2784cd613, type: 3}
    - {fileID: 21300000, guid: dcfd22f872e41b040bb56508bbb4a982, type: 3}
  - card_name: card_b
    card_index: 1
    card_sprite: {fileID: 21300000, guid: d5f15fc6b1f10ea48a9956104684c323, type: 3}
    answer_Card: 0
    ref_audio_manager: {fileID: 0}
    button: {fileID: 0}
    card_object: {fileID: 0}
    answer_cards_sprite:
    - {fileID: 21300000, guid: 4c9a73fe10578704eade4478128078ff, type: 3}
    - {fileID: 21300000, guid: b6508bdd97a1e5945873502dd53cd287, type: 3}
    - {fileID: 21300000, guid: f4761cb8c8ff5f541900b249b2aa8a82, type: 3}
    - {fileID: 21300000, guid: b848cc0b02f2366489e99fad0d0eec35, type: 3}
  - card_name: card_c
    card_index: 2
    card_sprite: {fileID: 21300000, guid: 622986e6f5ee6074dafb9ef14621025d, type: 3}
    answer_Card: 3
    ref_audio_manager: {fileID: 0}
    button: {fileID: 0}
    card_object: {fileID: 0}
    answer_cards_sprite:
    - {fileID: 21300000, guid: f8686df3d5dece240a440bec8dddc672, type: 3}
    - {fileID: 21300000, guid: c206487de643e23438f615ff958dbfd8, type: 3}
    - {fileID: 21300000, guid: 3f5fda9dbecb8774580223b9504522fa, type: 3}
    - {fileID: 21300000, guid: 60cd9d65c3c94274dba9daf1ebcb7cd5, type: 3}
  - card_name: card_d
    card_index: 3
    card_sprite: {fileID: 21300000, guid: 20283e970ae52eb4dbd0167e2cef883e, type: 3}
    answer_Card: 2
    ref_audio_manager: {fileID: 0}
    button: {fileID: 0}
    card_object: {fileID: 0}
    answer_cards_sprite:
    - {fileID: 21300000, guid: 26e2f8c2565959141be267ba4011c95e, type: 3}
    - {fileID: 21300000, guid: cd5a3beab2f409a439dd5d76179d48fd, type: 3}
    - {fileID: 21300000, guid: 19083c90f6ffd064e8597d82804bb9ad, type: 3}
    - {fileID: 21300000, guid: dcb46ddd01bcf354fa9b9b5ba07f6069, type: 3}
  - card_name: card_e
    card_index: 4
    card_sprite: {fileID: 21300000, guid: fff5bb05c7b4c2f47a3772b0cfa32a8b, type: 3}
    answer_Card: 2
    ref_audio_manager: {fileID: 0}
    button: {fileID: 0}
    card_object: {fileID: 0}
    answer_cards_sprite:
    - {fileID: 21300000, guid: 047e0f957bbe86147bdc5132f30b3f72, type: 3}
    - {fileID: 21300000, guid: c09fa09161659d34bb17987f33552189, type: 3}
    - {fileID: 21300000, guid: 8af09987fa1eef24e819768cfac150ba, type: 3}
    - {fileID: 21300000, guid: 6cbc4f7b8ef19eb4789c1756d5562f95, type: 3}
  - card_name: card_f
    card_index: 5
    card_sprite: {fileID: 21300000, guid: 4ed5fb8b4a064dc41b9b43584916d944, type: 3}
    answer_Card: 0
    ref_audio_manager: {fileID: 0}
    button: {fileID: 0}
    card_object: {fileID: 0}
    answer_cards_sprite:
    - {fileID: 21300000, guid: 54cc0175081c2a14e97991da19f9e460, type: 3}
    - {fileID: 21300000, guid: 786ef9e2aa3865441978337b2d93e1e5, type: 3}
    - {fileID: 21300000, guid: 509ea4163e5cefd45a5510f754ad2148, type: 3}
    - {fileID: 21300000, guid: 3d046199d4110c04d9821b4f0532dbf0, type: 3}
  - card_name: card_g
    card_index: 6
    card_sprite: {fileID: 21300000, guid: 2c4ed483a764d59459d3131fd9b1e20a, type: 3}
    answer_Card: 0
    ref_audio_manager: {fileID: 0}
    button: {fileID: 0}
    card_object: {fileID: 0}
    answer_cards_sprite:
    - {fileID: 21300000, guid: 21916c711ec89e8498348f3c55ed7035, type: 3}
    - {fileID: 21300000, guid: 0de7091946c5593499e5a022bd618f6b, type: 3}
    - {fileID: 21300000, guid: 86e197cf7aa279d47ba632924b3ea8d2, type: 3}
    - {fileID: 21300000, guid: 0dc60060f57fc5648b805443483869b7, type: 3}
  - card_name: card_h
    card_index: 7
    card_sprite: {fileID: 21300000, guid: 7caedf6f01222fe4ca777d21f9e86c5b, type: 3}
    answer_Card: 1
    ref_audio_manager: {fileID: 0}
    button: {fileID: 0}
    card_object: {fileID: 0}
    answer_cards_sprite:
    - {fileID: 21300000, guid: 90db25e05c310cb499e4528c830988f4, type: 3}
    - {fileID: 21300000, guid: d92aff3806c8886418769478b34faa8a, type: 3}
    - {fileID: 21300000, guid: 331257bb585e08e479ccdf421226f915, type: 3}
    - {fileID: 21300000, guid: 4d1a76e9a918504499617317b767065e, type: 3}
  - card_name: card_i
    card_index: 8
    card_sprite: {fileID: 21300000, guid: 1baac66a50d570540ae1f964b2e9b415, type: 3}
    answer_Card: 1
    ref_audio_manager: {fileID: 0}
    button: {fileID: 0}
    card_object: {fileID: 0}
    answer_cards_sprite:
    - {fileID: 21300000, guid: 155251fc6fd1d994e8627e62b5594913, type: 3}
    - {fileID: 21300000, guid: 4c4a573d445e75b49ad2f8cbb9f681d2, type: 3}
    - {fileID: 21300000, guid: 01bd32b6a166d704ba62bb9387cbfad1, type: 3}
    - {fileID: 21300000, guid: 73a195a843a898043bd70848a56a31c2, type: 3}
  - card_name: card_j
    card_index: 9
    card_sprite: {fileID: 21300000, guid: 16b6a58aa7fb8f649a006f2e036e4db2, type: 3}
    answer_Card: 3
    ref_audio_manager: {fileID: 0}
    button: {fileID: 0}
    card_object: {fileID: 0}
    answer_cards_sprite:
    - {fileID: 21300000, guid: b819f15728579a548ad19995c500b489, type: 3}
    - {fileID: 21300000, guid: 1e4c484c56af8e54b92dd2af64a54053, type: 3}
    - {fileID: 21300000, guid: e9ec1b6ef29819444bc0d20eb921f209, type: 3}
    - {fileID: 21300000, guid: 9c19ffe5c6a24a641a6def9665844f95, type: 3}
  - card_name: card_k
    card_index: 10
    card_sprite: {fileID: 21300000, guid: d920d971bfe038e428b10420a1878b55, type: 3}
    answer_Card: 2
    ref_audio_manager: {fileID: 0}
    button: {fileID: 0}
    card_object: {fileID: 0}
    answer_cards_sprite:
    - {fileID: 21300000, guid: 799374c2c7c47b545adaa381ed8b32f3, type: 3}
    - {fileID: 21300000, guid: 4a8a6baa875d7c54e96499603b80d847, type: 3}
    - {fileID: 21300000, guid: 5ac87d6342c222543afda99252519c91, type: 3}
    - {fileID: 21300000, guid: fae549d88c492c14dbc2dc05fd7e7fc4, type: 3}
  - card_name: card_l
    card_index: 11
    card_sprite: {fileID: 21300000, guid: f2e3deb2c4fe246488fc3151ca2506c1, type: 3}
    answer_Card: 1
    ref_audio_manager: {fileID: 0}
    button: {fileID: 0}
    card_object: {fileID: 0}
    answer_cards_sprite:
    - {fileID: 21300000, guid: 50cf4c6c748a4604f867742103542b86, type: 3}
    - {fileID: 21300000, guid: 78a2f231bf4755e4aacc86e5d4d33dae, type: 3}
    - {fileID: 21300000, guid: a140a08956b41a648b9a1c348a3a894b, type: 3}
    - {fileID: 21300000, guid: abd55531c46a9664f989a4eb7d40a808, type: 3}
  array_sprite_cards:
  - {fileID: 0}
  - {fileID: 0}
  - {fileID: 0}
  - {fileID: 0}
  - {fileID: 0}
  - {fileID: 0}
  - {fileID: 0}
  - {fileID: 0}
  - {fileID: 0}
  - {fileID: 0}
  - {fileID: 0}
  - {fileID: 0}
  answer_choice_cards:
  - {fileID: 0}
  - {fileID: 0}
  - {fileID: 0}
  - {fileID: 0}
